qa/2/log.vcd
$date
	Fri Jun  7 14:29:47 2024
$end
$version
	Icarus Verilog
$end
$timescale
	1ps
$end
$scope module TestBench $end
$var wire 1 ! rd_data_ready $end
$var wire 64 " rd_data [63:0] $end
$var wire 1 # busy $end
$var parameter 32 $ clk_tk $end
$var reg 4 % addr [3:0] $end
$var reg 1 & clk $end
$var reg 1 ' cmd $end
$var reg 1 ( cmd_en $end
$var reg 8 ) data_mask [7:0] $end
$var reg 1 * rst $end
$var reg 64 + wr_data [63:0] $end
$scope module dut $end
$var wire 4 , addr [3:0] $end
$var wire 1 & clk $end
$var wire 1 ' cmd $end
$var wire 1 ( cmd_en $end
$var wire 8 - data_mask [7:0] $end
$var wire 1 * rst $end
$var wire 64 . wr_data [63:0] $end
$var parameter 32 / BURST_COUNT $end
$var parameter 32 0 CMD_READ $end
$var parameter 32 1 CMD_WRITE $end
$var parameter 32 2 CYCLES_BEFORE_DATA_VALID $end
$var parameter 32 3 CYCLES_BEFORE_INITIATED $end
$var parameter 32 4 DATA_BITWIDTH $end
$var parameter 56 5 DATA_FILE $end
$var parameter 32 6 DEPTH $end
$var parameter 32 7 DEPTH_BITWIDTH $end
$var parameter 5 8 STATE_IDLE $end
$var parameter 5 9 STATE_INITIATE $end
$var parameter 5 : STATE_READ_BURST $end
$var parameter 5 ; STATE_READ_DELAY $end
$var parameter 5 < STATE_WRITE_BURST $end
$var reg 16 = addr_counter [15:0] $end
$var reg 2 > burst_counter [1:0] $end
$var reg 1 # busy $end
$var reg 5 ? init_calib_delay_counter [4:0] $end
$var reg 64 @ rd_data [63:0] $end
$var reg 1 ! rd_data_ready $end
$var reg 3 A read_delay_counter [2:0] $end
$var reg 5 B state [4:0] $end
$scope task set_new_state_after_command_done $end
$upscope $end
$upscope $end
$upscope $end
$enddefinitions $end
$comment Show the parameter values. $end
$dumpall
b10000 <
b100 ;
b1000 :
b1 9
b10 8
b100 7
b10000 6
b1010010010000010100110100101110011011010110010101101101 5
b1000000 4
b1010 3
b100 2
b1 1
b0 0
b100 /
b1010 $
$end
#0
$dumpvars
bx B
bx A
bx @
bx ?
bx >
bx =
b0 .
b0 -
b0 ,
b0 +
1*
b0 )
0(
0'
0&
b0 %
x#
bx "
x!
$end
#5000
b1 B
b0 ?
1#
b0 "
b0 @
0!
1&
#10000
0&
#15000
b1 ?
1&
0*
#20000
0&
#25000
b10 ?
1&
#30000
0&
#35000
b11 ?
1&
#40000
0&
#45000
b100 ?
1&
#50000
0&
#55000
b101 ?
1&
#60000
0&
#65000
b110 ?
1&
#70000
0&
#75000
b111 ?
1&
#80000
0&
#85000
b1000 ?
1&
#90000
0&
#95000
b1001 ?
1&
#100000
0&
#105000
b1010 ?
1&
#110000
0&
#115000
b1011 ?
b10 B
0#
1&
#120000
0&
#125000
1(
1&
#130000
0&
#135000
b100 B
b0 =
b0 A
b0 >
1#
0(
1&
#140000
0&
#145000
b1 A
1&
#150000
0&
#155000
b10 A
1&
#160000
0&
#165000
b11 A
1&
#170000
0&
#175000
b100 A
b1000 B
b1 =
b11111101011010001011100001010010110111110001101010100110000000 "
b11111101011010001011100001010010110111110001101010100110000000 @
1!
1&
#180000
0&
#185000
b1001110110001110001011110001011110101011010011000011111001101111 "
b1001110110001110001011110001011110101011010011000011111001101111 @
b10 =
b1 >
1&
#190000
0&
#195000
b1010000111000011111101111110001011010101101110001010100111000100 "
b1010000111000011111101111110001011010101101110001010100111000100 @
b11 =
b10 >
1&
#200000
0&
#205000
b111110101001110100111110010110000011011011010100011110110001111 "
b111110101001110100111110010110000011011011010100011110110001111 @
b100 =
b11 >
1&
#210000
0&
#215000
b10 B
0#
0!
b101 =
b0 >
1&
#220000
0&
#225000
1&
#230000
0&
#235000
1&
#240000
0&
#245000
1&
#250000
0&
#255000
1&
#260000
0&
#265000
b100 %
b100 ,
1(
1&
#270000
0&
#275000
b100 B
b100 =
b0 A
1#
0(
1&
#280000
0&
#285000
b1 A
1&
#290000
0&
#295000
b10 A
1&
#300000
0&
#305000
b11 A
1&
#310000
0&
#315000
b100 A
b1000 B
b101 =
b110110001001011100110101000110100101111010111100011110001111010 "
b110110001001011100110101000110100101111010111100011110001111010 @
1!
1&
#320000
0&
#325000
b1110000110100111110100001011010111001000111100111110011010101001 "
b1110000110100111110100001011010111001000111100111110011010101001 @
b110 =
b1 >
1&
#330000
0&
#335000
b1111100011101001110100101100001110110100101001011111011011100111 "
b1111100011101001110100101100001110110100101001011111011011100111 @
b111 =
b10 >
1&
#340000
0&
#345000
b1101010011100111111100101100010110111000101000111101011011101001 "
b1101010011100111111100101100010110111000101000111101011011101001 @
b1000 =
b11 >
1&
#350000
0&
#355000
b10 B
0#
0!
b1001 =
b0 >
1&
